{
   "goal":{
      "id":1,
      "goalId":2,
      "pageId":1,
      "goal":{
         "id":2,
         "name":"PAGE_LIKES",
         "displayName":"Get more Facebook Followers for",
         "placementTypes":[
            "All"
         ],
         "displayNameWithParam":"Get more Facebook Followers for Musemic"
      },
      "page":{
         "pageId":1,
         "pageName":"Musemic",
         "pagePageId":"269001216618185",
         "socialAccount":{
            "name":"Darren Dahl",
            "teamId":51
         },
         "socialAccountId":1,
         "image":"http://graph.facebook.com/269001216618185/picture"
      }
   },
   "channels":[
      {
         "channel":"FACEBOOK",
         "adAccount":{
            "id":1,
            "currency":"USD",
            "name":"FS-ENG-SF1",
            "social":{
               "socialType":"Facebook",
               "socialUsername":"579427319",
               "image":"http://graph.facebook.com/579427319/picture"
            },
            "accountId":1003638469775784
         }
      },
      {
          "channel": "ADWORDS",
          "adAccount": {}
      }
   ],
   "id":null,
   "project":{
      "id":1,
      "name":"Musemic",
      "description":"More followers for musemic",
      "createdAt":1424718268000,
      "teamId":51,
      "goals":[
         {
            "id":1,
            "goalId":2,
            "pageId":1,
            "goal":{
               "id":2,
               "name":"PAGE_LIKES",
               "displayName":"Get more Facebook Followers for",
               "placementTypes":[
                  "All"
               ],
               "displayNameWithParam":"Get more Facebook Followers for Musemic"
            },
            "page":{
               "pageId":1,
               "pageName":"Musemic",
               "pagePageId":"269001216618185",
               "socialAccount":{
                  "name":"Darren Dahl",
                  "teamId":51
               },
               "socialAccountId":1,
               "image":"http://graph.facebook.com/269001216618185/picture"
            }
         }
      ],
      "attachments":[

      ]
   },
   "name":"New campaign",
   "pixel":null,
   "budget":12,
   "startDate":"2015-03-03T08:00:00.000Z",
   "endDate":"2015-03-04T08:00:00.000Z",
   "bidType":"clicks"
}