{ "data" : {
	"data": [
	    {
		"hashId": "1962665058",
		"subCampaignId": 0,
		"subCampaignStatus": "ACTIVE",
		"channel": "FACEBOOK",
		"impressions": 4400,
		"clicks": 10,
		"conversions": 1,
		"spent": 10,
		"budget": 500,
		"bidAmount": 0
	    },
	    {
		"hashId": "36122504",
		"subCampaignId": 0,
		"subCampaignStatus": "ACTIVE",
		"channel": "FACEBOOK",
		"impressions": 6300,
		"clicks": 21,
		"conversions": 2,
		"spent": 30,
		"budget": 500,
		"bidAmount": 0
	    }
	]
    }
}