{
  "_size": 1,
  "data": {
    "insights": {
      "1356940799000": {
        "endTime": 1356940799000,
        "pageId": "138943382910652",
        "id": "138943382910652:1356940799000",
        "insights": [
          {
            "period": "day",
            "name": "page_impressions",
            "value": 13,
            "valueMap": []
          },
          {
            "period": "day",
            "name": "page_impressions_organic",
            "value": 46,
            "valueMap": []
          },
          {
            "period": "day",
            "name": "page_engaged_users",
            "value": 33,
            "valueMap": []
          },
          {
            "period": "day",
            "name": "page_fans_add",
            "value": 101,
            "valueMap": []
          },
          {
            "period": "day",
            "name": "page_fans_remove",
            "value": 17,
            "valueMap": []
          },
          {
            "period": "day",
            "name": "page_impressions_organic",
            "value": 13,
            "valueMap": []
          },
          {
            "period": "day",
            "name": "page_impressions_paid",
            "value": 93,
            "valueMap": []
          },
          {
            "period": "day",
            "name": "page_impressions_viral",
            "value": 30,
            "valueMap": []
          },
          {
            "period": "day",
            "name": "page_impressions_organic",
            "value": 57,
            "valueMap": []
          },
          {
            "period": "day",
            "name": "page_positive_feedback_by_type",
            "value": {
              "link": 76,
              "like": 38,
              "comment": 75
            },
            "valueMap": []
          },
          {
            "period": "day",
            "name": "page_consumptions_unique",
            "value": 70,
            "valueMap": []
          },
          {
            "period": "day",
            "name": "page_impressions_unique",
            "value": 7,
            "valueMap": []
          },
          {
            "period": "day",
            "name": "page_impressions_organic_unique",
            "value": 67,
            "valueMap": []
          },
          {
            "period": "day",
            "name": "page_impressions_paid_unique",
            "value": 63,
            "valueMap": []
          },
          {
            "period": "day",
            "name": "page_impressions_viral_unique",
            "value": 65,
            "valueMap": []
          },
          {
            "period": "day",
            "name": "page_negative_feedback_by_type",
            "value": {
              "hide_clicks": 9,
              "hide_all_clicks": 7,
              "report_spam_clicks": 63
            },
            "valueMap": []
          }
        ]
      },
      "1357027199000": {
        "endTime": 1357027199000,
        "pageId": "138943382910652",
        "id": "138943382910652:1357027199000",
        "insights": [
          {
            "period": "day",
            "name": "page_impressions",
            "value": 39,
            "valueMap": []
          },
          {
            "period": "day",
            "name": "page_impressions_organic",
            "value": 39,
            "valueMap": []
          },
          {
            "period": "day",
            "name": "page_engaged_users",
            "value": 36,
            "valueMap": []
          },
          {
            "period": "day",
            "name": "page_fans_add",
            "value": 63,
            "valueMap": []
          },
          {
            "period": "day",
            "name": "page_fans_remove",
            "value": 104,
            "valueMap": []
          },
          {
            "period": "day",
            "name": "page_impressions_organic",
            "value": 5,
            "valueMap": []
          },
          {
            "period": "day",
            "name": "page_impressions_paid",
            "value": 90,
            "valueMap": []
          },
          {
            "period": "day",
            "name": "page_impressions_viral",
            "value": 44,
            "valueMap": []
          },
          {
            "period": "day",
            "name": "page_impressions_organic",
            "value": 10,
            "valueMap": []
          },
          {
            "period": "day",
            "name": "page_positive_feedback_by_type",
            "value": {
              "link": 98,
              "like": 38,
              "comment": 52
            },
            "valueMap": []
          },
          {
            "period": "day",
            "name": "page_consumptions_unique",
            "value": 44,
            "valueMap": []
          },
          {
            "period": "day",
            "name": "page_impressions_unique",
            "value": 19,
            "valueMap": []
          },
          {
            "period": "day",
            "name": "page_impressions_organic_unique",
            "value": 49,
            "valueMap": []
          },
          {
            "period": "day",
            "name": "page_impressions_paid_unique",
            "value": 18,
            "valueMap": []
          },
          {
            "period": "day",
            "name": "page_impressions_viral_unique",
            "value": 6,
            "valueMap": []
          },
          {
            "period": "day",
            "name": "page_negative_feedback_by_type",
            "value": {
              "hide_clicks": 77,
              "hide_all_clicks": 49,
              "report_spam_clicks": 102
            },
            "valueMap": []
          }
        ]
      },
      "1357113599000": {
        "endTime": 1357113599000,
        "pageId": "138943382910652",
        "id": "138943382910652:1357113599000",
        "insights": [
          {
            "period": "day",
            "name": "page_impressions",
            "value": 39,
            "valueMap": []
          },
          {
            "period": "day",
            "name": "page_impressions_organic",
            "value": 40,
            "valueMap": []
          },
          {
            "period": "day",
            "name": "page_engaged_users",
            "value": 53,
            "valueMap": []
          },
          {
            "period": "day",
            "name": "page_fans_add",
            "value": 54,
            "valueMap": []
          },
          {
            "period": "day",
            "name": "page_fans_remove",
            "value": 95,
            "valueMap": []
          },
          {
            "period": "day",
            "name": "page_impressions_organic",
            "value": 50,
            "valueMap": []
          },
          {
            "period": "day",
            "name": "page_impressions_paid",
            "value": 88,
            "valueMap": []
          },
          {
            "period": "day",
            "name": "page_impressions_viral",
            "value": 91,
            "valueMap": []
          },
          {
            "period": "day",
            "name": "page_impressions_organic",
            "value": 21,
            "valueMap": []
          },
          {
            "period": "day",
            "name": "page_positive_feedback_by_type",
            "value": {
              "link": 85,
              "like": 69,
              "comment": 54
            },
            "valueMap": []
          },
          {
            "period": "day",
            "name": "page_consumptions_unique",
            "value": 67,
            "valueMap": []
          },
          {
            "period": "day",
            "name": "page_impressions_unique",
            "value": 84,
            "valueMap": []
          },
          {
            "period": "day",
            "name": "page_impressions_organic_unique",
            "value": 54,
            "valueMap": []
          },
          {
            "period": "day",
            "name": "page_impressions_paid_unique",
            "value": 25,
            "valueMap": []
          },
          {
            "period": "day",
            "name": "page_impressions_viral_unique",
            "value": 72,
            "valueMap": []
          },
          {
            "period": "day",
            "name": "page_negative_feedback_by_type",
            "value": {
              "hide_clicks": 31,
              "hide_all_clicks": 34,
              "report_spam_clicks": 85
            },
            "valueMap": []
          }
        ]
      },
      "1357199999000": {
        "endTime": 1357199999000,
        "pageId": "138943382910652",
        "id": "138943382910652:1357199999000",
        "insights": [
          {
            "period": "day",
            "name": "page_impressions",
            "value": 68,
            "valueMap": []
          },
          {
            "period": "day",
            "name": "page_impressions_organic",
            "value": 37,
            "valueMap": []
          },
          {
            "period": "day",
            "name": "page_engaged_users",
            "value": 87,
            "valueMap": []
          },
          {
            "period": "day",
            "name": "page_fans_add",
            "value": 50,
            "valueMap": []
          },
          {
            "period": "day",
            "name": "page_fans_remove",
            "value": 46,
            "valueMap": []
          },
          {
            "period": "day",
            "name": "page_impressions_organic",
            "value": 54,
            "valueMap": []
          },
          {
            "period": "day",
            "name": "page_impressions_paid",
            "value": 84,
            "valueMap": []
          },
          {
            "period": "day",
            "name": "page_impressions_viral",
            "value": 35,
            "valueMap": []
          },
          {
            "period": "day",
            "name": "page_impressions_organic",
            "value": 97,
            "valueMap": []
          },
          {
            "period": "day",
            "name": "page_positive_feedback_by_type",
            "value": {
              "link": 65,
              "like": 56,
              "comment": 20
            },
            "valueMap": []
          },
          {
            "period": "day",
            "name": "page_consumptions_unique",
            "value": 49,
            "valueMap": []
          },
          {
            "period": "day",
            "name": "page_impressions_unique",
            "value": 72,
            "valueMap": []
          },
          {
            "period": "day",
            "name": "page_impressions_organic_unique",
            "value": 35,
            "valueMap": []
          },
          {
            "period": "day",
            "name": "page_impressions_paid_unique",
            "value": 75,
            "valueMap": []
          },
          {
            "period": "day",
            "name": "page_impressions_viral_unique",
            "value": 71,
            "valueMap": []
          },
          {
            "period": "day",
            "name": "page_negative_feedback_by_type",
            "value": {
              "hide_clicks": 90,
              "hide_all_clicks": 45,
              "report_spam_clicks": 46
            },
            "valueMap": []
          }
        ]
      },
      "1357286399000": {
        "endTime": 1357286399000,
        "pageId": "138943382910652",
        "id": "138943382910652:1357286399000",
        "insights": [
          {
            "period": "day",
            "name": "page_impressions",
            "value": 98,
            "valueMap": []
          },
          {
            "period": "day",
            "name": "page_impressions_organic",
            "value": 77,
            "valueMap": []
          },
          {
            "period": "day",
            "name": "page_engaged_users",
            "value": 83,
            "valueMap": []
          },
          {
            "period": "day",
            "name": "page_fans_add",
            "value": 88,
            "valueMap": []
          },
          {
            "period": "day",
            "name": "page_fans_remove",
            "value": 18,
            "valueMap": []
          },
          {
            "period": "day",
            "name": "page_impressions_organic",
            "value": 74,
            "valueMap": []
          },
          {
            "period": "day",
            "name": "page_impressions_paid",
            "value": 65,
            "valueMap": []
          },
          {
            "period": "day",
            "name": "page_impressions_viral",
            "value": 82,
            "valueMap": []
          },
          {
            "period": "day",
            "name": "page_impressions_organic",
            "value": 83,
            "valueMap": []
          },
          {
            "period": "day",
            "name": "page_positive_feedback_by_type",
            "value": {
              "link": 58,
              "like": 37,
              "comment": 83
            },
            "valueMap": []
          },
          {
            "period": "day",
            "name": "page_consumptions_unique",
            "value": 9,
            "valueMap": []
          },
          {
            "period": "day",
            "name": "page_impressions_unique",
            "value": 29,
            "valueMap": []
          },
          {
            "period": "day",
            "name": "page_impressions_organic_unique",
            "value": 85,
            "valueMap": []
          },
          {
            "period": "day",
            "name": "page_impressions_paid_unique",
            "value": 18,
            "valueMap": []
          },
          {
            "period": "day",
            "name": "page_impressions_viral_unique",
            "value": 69,
            "valueMap": []
          },
          {
            "period": "day",
            "name": "page_negative_feedback_by_type",
            "value": {
              "hide_clicks": 76,
              "hide_all_clicks": 97,
              "report_spam_clicks": 5
            },
            "valueMap": []
          }
        ]
      },
      "1357372799000": {
        "endTime": 1357372799000,
        "pageId": "138943382910652",
        "id": "138943382910652:1357372799000",
        "insights": [
          {
            "period": "day",
            "name": "page_impressions",
            "value": 72,
            "valueMap": []
          },
          {
            "period": "day",
            "name": "page_impressions_organic",
            "value": 93,
            "valueMap": []
          },
          {
            "period": "day",
            "name": "page_engaged_users",
            "value": 56,
            "valueMap": []
          },
          {
            "period": "day",
            "name": "page_fans_add",
            "value": 29,
            "valueMap": []
          },
          {
            "period": "day",
            "name": "page_fans_remove",
            "value": 23,
            "valueMap": []
          },
          {
            "period": "day",
            "name": "page_impressions_organic",
            "value": 6,
            "valueMap": []
          },
          {
            "period": "day",
            "name": "page_impressions_paid",
            "value": 51,
            "valueMap": []
          },
          {
            "period": "day",
            "name": "page_impressions_viral",
            "value": 49,
            "valueMap": []
          },
          {
            "period": "day",
            "name": "page_impressions_organic",
            "value": 100,
            "valueMap": []
          },
          {
            "period": "day",
            "name": "page_positive_feedback_by_type",
            "value": {
              "link": 40,
              "like": 56,
              "comment": 6
            },
            "valueMap": []
          },
          {
            "period": "day",
            "name": "page_consumptions_unique",
            "value": 84,
            "valueMap": []
          },
          {
            "period": "day",
            "name": "page_impressions_unique",
            "value": 72,
            "valueMap": []
          },
          {
            "period": "day",
            "name": "page_impressions_organic_unique",
            "value": 98,
            "valueMap": []
          },
          {
            "period": "day",
            "name": "page_impressions_paid_unique",
            "value": 69,
            "valueMap": []
          },
          {
            "period": "day",
            "name": "page_impressions_viral_unique",
            "value": 15,
            "valueMap": []
          },
          {
            "period": "day",
            "name": "page_negative_feedback_by_type",
            "value": {
              "hide_clicks": 50,
              "hide_all_clicks": 33,
              "report_spam_clicks": 61
            },
            "valueMap": []
          }
        ]
      },
      "1357459199000": {
        "endTime": 1357459199000,
        "pageId": "138943382910652",
        "id": "138943382910652:1357459199000",
        "insights": [
          {
            "period": "day",
            "name": "page_impressions",
            "value": 70,
            "valueMap": []
          },
          {
            "period": "day",
            "name": "page_impressions_organic",
            "value": 19,
            "valueMap": []
          },
          {
            "period": "day",
            "name": "page_engaged_users",
            "value": 79,
            "valueMap": []
          },
          {
            "period": "day",
            "name": "page_fans_add",
            "value": 33,
            "valueMap": []
          },
          {
            "period": "day",
            "name": "page_fans_remove",
            "value": 77,
            "valueMap": []
          },
          {
            "period": "day",
            "name": "page_impressions_organic",
            "value": 103,
            "valueMap": []
          },
          {
            "period": "day",
            "name": "page_impressions_paid",
            "value": 28,
            "valueMap": []
          },
          {
            "period": "day",
            "name": "page_impressions_viral",
            "value": 30,
            "valueMap": []
          },
          {
            "period": "day",
            "name": "page_impressions_organic",
            "value": 74,
            "valueMap": []
          },
          {
            "period": "day",
            "name": "page_positive_feedback_by_type",
            "value": {
              "link": 89,
              "like": 49,
              "comment": 104
            },
            "valueMap": []
          },
          {
            "period": "day",
            "name": "page_consumptions_unique",
            "value": 63,
            "valueMap": []
          },
          {
            "period": "day",
            "name": "page_impressions_unique",
            "value": 96,
            "valueMap": []
          },
          {
            "period": "day",
            "name": "page_impressions_organic_unique",
            "value": 97,
            "valueMap": []
          },
          {
            "period": "day",
            "name": "page_impressions_paid_unique",
            "value": 101,
            "valueMap": []
          },
          {
            "period": "day",
            "name": "page_impressions_viral_unique",
            "value": 11,
            "valueMap": []
          },
          {
            "period": "day",
            "name": "page_negative_feedback_by_type",
            "value": {
              "hide_clicks": 98,
              "hide_all_clicks": 74,
              "report_spam_clicks": 50
            },
            "valueMap": []
          }
        ]
      },
      "1357545599000": {
        "endTime": 1357545599000,
        "pageId": "138943382910652",
        "id": "138943382910652:1357545599000",
        "insights": [
          {
            "period": "day",
            "name": "page_impressions",
            "value": 34,
            "valueMap": []
          },
          {
            "period": "day",
            "name": "page_impressions_organic",
            "value": 48,
            "valueMap": []
          },
          {
            "period": "day",
            "name": "page_engaged_users",
            "value": 62,
            "valueMap": []
          },
          {
            "period": "day",
            "name": "page_fans_add",
            "value": 69,
            "valueMap": []
          },
          {
            "period": "day",
            "name": "page_fans_remove",
            "value": 65,
            "valueMap": []
          },
          {
            "period": "day",
            "name": "page_impressions_organic",
            "value": 49,
            "valueMap": []
          },
          {
            "period": "day",
            "name": "page_impressions_paid",
            "value": 55,
            "valueMap": []
          },
          {
            "period": "day",
            "name": "page_impressions_viral",
            "value": 34,
            "valueMap": []
          },
          {
            "period": "day",
            "name": "page_impressions_organic",
            "value": 63,
            "valueMap": []
          },
          {
            "period": "day",
            "name": "page_positive_feedback_by_type",
            "value": {
              "link": 8,
              "like": 103,
              "comment": 90
            },
            "valueMap": []
          },
          {
            "period": "day",
            "name": "page_consumptions_unique",
            "value": 55,
            "valueMap": []
          },
          {
            "period": "day",
            "name": "page_impressions_unique",
            "value": 35,
            "valueMap": []
          },
          {
            "period": "day",
            "name": "page_impressions_organic_unique",
            "value": 74,
            "valueMap": []
          },
          {
            "period": "day",
            "name": "page_impressions_paid_unique",
            "value": 14,
            "valueMap": []
          },
          {
            "period": "day",
            "name": "page_impressions_viral_unique",
            "value": 64,
            "valueMap": []
          },
          {
            "period": "day",
            "name": "page_negative_feedback_by_type",
            "value": {
              "hide_clicks": 36,
              "hide_all_clicks": 59,
              "report_spam_clicks": 47
            },
            "valueMap": []
          }
        ]
      },
      "1357631999000": {
        "endTime": 1357631999000,
        "pageId": "138943382910652",
        "id": "138943382910652:1357631999000",
        "insights": [
          {
            "period": "day",
            "name": "page_impressions",
            "value": 24,
            "valueMap": []
          },
          {
            "period": "day",
            "name": "page_impressions_organic",
            "value": 69,
            "valueMap": []
          },
          {
            "period": "day",
            "name": "page_engaged_users",
            "value": 19,
            "valueMap": []
          },
          {
            "period": "day",
            "name": "page_fans_add",
            "value": 82,
            "valueMap": []
          },
          {
            "period": "day",
            "name": "page_fans_remove",
            "value": 35,
            "valueMap": []
          },
          {
            "period": "day",
            "name": "page_impressions_organic",
            "value": 87,
            "valueMap": []
          },
          {
            "period": "day",
            "name": "page_impressions_paid",
            "value": 58,
            "valueMap": []
          },
          {
            "period": "day",
            "name": "page_impressions_viral",
            "value": 24,
            "valueMap": []
          },
          {
            "period": "day",
            "name": "page_impressions_organic",
            "value": 70,
            "valueMap": []
          },
          {
            "period": "day",
            "name": "page_positive_feedback_by_type",
            "value": {
              "link": 93,
              "like": 24,
              "comment": 73
            },
            "valueMap": []
          },
          {
            "period": "day",
            "name": "page_consumptions_unique",
            "value": 13,
            "valueMap": []
          },
          {
            "period": "day",
            "name": "page_impressions_unique",
            "value": 103,
            "valueMap": []
          },
          {
            "period": "day",
            "name": "page_impressions_organic_unique",
            "value": 53,
            "valueMap": []
          },
          {
            "period": "day",
            "name": "page_impressions_paid_unique",
            "value": 72,
            "valueMap": []
          },
          {
            "period": "day",
            "name": "page_impressions_viral_unique",
            "value": 25,
            "valueMap": []
          },
          {
            "period": "day",
            "name": "page_negative_feedback_by_type",
            "value": {
              "hide_clicks": 7,
              "hide_all_clicks": 19,
              "report_spam_clicks": 84
            },
            "valueMap": []
          }
        ]
      },
      "1357718399000": {
        "endTime": 1357718399000,
        "pageId": "138943382910652",
        "id": "138943382910652:1357718399000",
        "insights": [
          {
            "period": "day",
            "name": "page_impressions",
            "value": 59,
            "valueMap": []
          },
          {
            "period": "day",
            "name": "page_impressions_organic",
            "value": 92,
            "valueMap": []
          },
          {
            "period": "day",
            "name": "page_engaged_users",
            "value": 80,
            "valueMap": []
          },
          {
            "period": "day",
            "name": "page_fans_add",
            "value": 46,
            "valueMap": []
          },
          {
            "period": "day",
            "name": "page_fans_remove",
            "value": 11,
            "valueMap": []
          },
          {
            "period": "day",
            "name": "page_impressions_organic",
            "value": 80,
            "valueMap": []
          },
          {
            "period": "day",
            "name": "page_impressions_paid",
            "value": 76,
            "valueMap": []
          },
          {
            "period": "day",
            "name": "page_impressions_viral",
            "value": 33,
            "valueMap": []
          },
          {
            "period": "day",
            "name": "page_impressions_organic",
            "value": 40,
            "valueMap": []
          },
          {
            "period": "day",
            "name": "page_positive_feedback_by_type",
            "value": {
              "link": 102,
              "like": 79,
              "comment": 76
            },
            "valueMap": []
          },
          {
            "period": "day",
            "name": "page_consumptions_unique",
            "value": 94,
            "valueMap": []
          },
          {
            "period": "day",
            "name": "page_impressions_unique",
            "value": 63,
            "valueMap": []
          },
          {
            "period": "day",
            "name": "page_impressions_organic_unique",
            "value": 45,
            "valueMap": []
          },
          {
            "period": "day",
            "name": "page_impressions_paid_unique",
            "value": 37,
            "valueMap": []
          },
          {
            "period": "day",
            "name": "page_impressions_viral_unique",
            "value": 45,
            "valueMap": []
          },
          {
            "period": "day",
            "name": "page_negative_feedback_by_type",
            "value": {
              "hide_clicks": 66,
              "hide_all_clicks": 36,
              "report_spam_clicks": 75
            },
            "valueMap": []
          }
        ]
      },
      "1357804799000": {
        "endTime": 1357804799000,
        "pageId": "138943382910652",
        "id": "138943382910652:1357804799000",
        "insights": [
          {
            "period": "day",
            "name": "page_impressions",
            "value": 8,
            "valueMap": []
          },
          {
            "period": "day",
            "name": "page_impressions_organic",
            "value": 32,
            "valueMap": []
          },
          {
            "period": "day",
            "name": "page_engaged_users",
            "value": 66,
            "valueMap": []
          },
          {
            "period": "day",
            "name": "page_fans_add",
            "value": 62,
            "valueMap": []
          },
          {
            "period": "day",
            "name": "page_fans_remove",
            "value": 92,
            "valueMap": []
          },
          {
            "period": "day",
            "name": "page_impressions_organic",
            "value": 50,
            "valueMap": []
          },
          {
            "period": "day",
            "name": "page_impressions_paid",
            "value": 40,
            "valueMap": []
          },
          {
            "period": "day",
            "name": "page_impressions_viral",
            "value": 98,
            "valueMap": []
          },
          {
            "period": "day",
            "name": "page_impressions_organic",
            "value": 101,
            "valueMap": []
          },
          {
            "period": "day",
            "name": "page_positive_feedback_by_type",
            "value": {
              "link": 31,
              "like": 18,
              "comment": 29
            },
            "valueMap": []
          },
          {
            "period": "day",
            "name": "page_consumptions_unique",
            "value": 37,
            "valueMap": []
          },
          {
            "period": "day",
            "name": "page_impressions_unique",
            "value": 99,
            "valueMap": []
          },
          {
            "period": "day",
            "name": "page_impressions_organic_unique",
            "value": 50,
            "valueMap": []
          },
          {
            "period": "day",
            "name": "page_impressions_paid_unique",
            "value": 37,
            "valueMap": []
          },
          {
            "period": "day",
            "name": "page_impressions_viral_unique",
            "value": 11,
            "valueMap": []
          },
          {
            "period": "day",
            "name": "page_negative_feedback_by_type",
            "value": {
              "hide_clicks": 61,
              "hide_all_clicks": 75,
              "report_spam_clicks": 84
            },
            "valueMap": []
          }
        ]
      },
      "1357891199000": {
        "endTime": 1357891199000,
        "pageId": "138943382910652",
        "id": "138943382910652:1357891199000",
        "insights": [
          {
            "period": "day",
            "name": "page_impressions",
            "value": 5,
            "valueMap": []
          },
          {
            "period": "day",
            "name": "page_impressions_organic",
            "value": 60,
            "valueMap": []
          },
          {
            "period": "day",
            "name": "page_engaged_users",
            "value": 88,
            "valueMap": []
          },
          {
            "period": "day",
            "name": "page_fans_add",
            "value": 92,
            "valueMap": []
          },
          {
            "period": "day",
            "name": "page_fans_remove",
            "value": 72,
            "valueMap": []
          },
          {
            "period": "day",
            "name": "page_impressions_organic",
            "value": 62,
            "valueMap": []
          },
          {
            "period": "day",
            "name": "page_impressions_paid",
            "value": 36,
            "valueMap": []
          },
          {
            "period": "day",
            "name": "page_impressions_viral",
            "value": 95,
            "valueMap": []
          },
          {
            "period": "day",
            "name": "page_impressions_organic",
            "value": 37,
            "valueMap": []
          },
          {
            "period": "day",
            "name": "page_positive_feedback_by_type",
            "value": {
              "link": 79,
              "like": 29,
              "comment": 36
            },
            "valueMap": []
          },
          {
            "period": "day",
            "name": "page_consumptions_unique",
            "value": 69,
            "valueMap": []
          },
          {
            "period": "day",
            "name": "page_impressions_unique",
            "value": 25,
            "valueMap": []
          },
          {
            "period": "day",
            "name": "page_impressions_organic_unique",
            "value": 65,
            "valueMap": []
          },
          {
            "period": "day",
            "name": "page_impressions_paid_unique",
            "value": 8,
            "valueMap": []
          },
          {
            "period": "day",
            "name": "page_impressions_viral_unique",
            "value": 67,
            "valueMap": []
          },
          {
            "period": "day",
            "name": "page_negative_feedback_by_type",
            "value": {
              "hide_clicks": 61,
              "hide_all_clicks": 41,
              "report_spam_clicks": 76
            },
            "valueMap": []
          }
        ]
      },
      "1357977599000": {
        "endTime": 1357977599000,
        "pageId": "138943382910652",
        "id": "138943382910652:1357977599000",
        "insights": [
          {
            "period": "day",
            "name": "page_impressions",
            "value": 95,
            "valueMap": []
          },
          {
            "period": "day",
            "name": "page_impressions_organic",
            "value": 99,
            "valueMap": []
          },
          {
            "period": "day",
            "name": "page_engaged_users",
            "value": 45,
            "valueMap": []
          },
          {
            "period": "day",
            "name": "page_fans_add",
            "value": 32,
            "valueMap": []
          },
          {
            "period": "day",
            "name": "page_fans_remove",
            "value": 90,
            "valueMap": []
          },
          {
            "period": "day",
            "name": "page_impressions_organic",
            "value": 91,
            "valueMap": []
          },
          {
            "period": "day",
            "name": "page_impressions_paid",
            "value": 100,
            "valueMap": []
          },
          {
            "period": "day",
            "name": "page_impressions_viral",
            "value": 73,
            "valueMap": []
          },
          {
            "period": "day",
            "name": "page_impressions_organic",
            "value": 31,
            "valueMap": []
          },
          {
            "period": "day",
            "name": "page_positive_feedback_by_type",
            "value": {
              "link": 88,
              "like": 55,
              "comment": 17
            },
            "valueMap": []
          },
          {
            "period": "day",
            "name": "page_consumptions_unique",
            "value": 72,
            "valueMap": []
          },
          {
            "period": "day",
            "name": "page_impressions_unique",
            "value": 94,
            "valueMap": []
          },
          {
            "period": "day",
            "name": "page_impressions_organic_unique",
            "value": 64,
            "valueMap": []
          },
          {
            "period": "day",
            "name": "page_impressions_paid_unique",
            "value": 77,
            "valueMap": []
          },
          {
            "period": "day",
            "name": "page_impressions_viral_unique",
            "value": 32,
            "valueMap": []
          },
          {
            "period": "day",
            "name": "page_negative_feedback_by_type",
            "value": {
              "hide_clicks": 38,
              "hide_all_clicks": 46,
              "report_spam_clicks": 8
            },
            "valueMap": []
          }
        ]
      }
    }
  },
  "_meta": {
    "code": 200
  }
}
